%YAML 1.1
%TAG !u! tag:unity3d.com,2011:
--- !u!114 &11400000
MonoBehaviour:
  m_ObjectHideFlags: 0
  m_CorrespondingSourceObject: {fileID: 0}
  m_PrefabInternal: {fileID: 0}
  m_GameObject: {fileID: 0}
  m_Enabled: 1
  m_EditorHideFlags: 0
  m_Script: {fileID: 11500000, guid: db0fa8557d3776045974c7bb375e2221, type: 3}
  m_Name: __actions_platformer
  m_EditorClassIdentifier: 
  allActions:
  - {fileID: 11400000, guid: 172a682e366d41b4986cab96f0971fbd, type: 2}
  - {fileID: 11400000, guid: 4d9c2f3984319674d8d1f6ee38cfafdc, type: 2}
  nonVisualInActions:
  - {fileID: 11400000, guid: 172a682e366d41b4986cab96f0971fbd, type: 2}
  - {fileID: 11400000, guid: 4d9c2f3984319674d8d1f6ee38cfafdc, type: 2}
  visualActions: []
  poseActions: []
  skeletonActions: []
  outActionArray: []
  fullPath: /actions/platformer
  usage: single
  inActions: {fileID: 11400000, guid: af68575e12f61d849a722ad612faefbd, type: 2}
