%YAML 1.1
%TAG !u! tag:unity3d.com,2011:
--- !u!114 &11400000
MonoBehaviour:
  m_ObjectHideFlags: 0
  m_CorrespondingSourceObject: {fileID: 0}
  m_PrefabInternal: {fileID: 0}
  m_GameObject: {fileID: 0}
  m_Enabled: 1
  m_EditorHideFlags: 0
  m_Script: {fileID: 11500000, guid: d67976d0b6d8b89458a5405114f8a6e0, type: 3}
  m_Name: SteamVR_Input_ActionSet_platformer_In
  m_EditorClassIdentifier: 
  actionSet: {fileID: 0}
  listDirection: 0
  actions:
  - {fileID: 11400000, guid: 172a682e366d41b4986cab96f0971fbd, type: 2}
  - {fileID: 11400000, guid: 4d9c2f3984319674d8d1f6ee38cfafdc, type: 2}
  Move: {fileID: 11400000, guid: 172a682e366d41b4986cab96f0971fbd, type: 2}
  Jump: {fileID: 11400000, guid: 4d9c2f3984319674d8d1f6ee38cfafdc, type: 2}
