%YAML 1.1
%TAG !u! tag:unity3d.com,2011:
--- !u!114 &11400000
MonoBehaviour:
  m_ObjectHideFlags: 0
  m_CorrespondingSourceObject: {fileID: 0}
  m_PrefabInternal: {fileID: 0}
  m_GameObject: {fileID: 0}
  m_Enabled: 1
  m_EditorHideFlags: 0
  m_Script: {fileID: 11500000, guid: 47aa6f03a78432b469ea90a3992d3851, type: 3}
  m_Name: SteamVR_Input_ActionSet_default_Out
  m_EditorClassIdentifier: 
  actionSet: {fileID: 0}
  listDirection: 1
  actions:
  - {fileID: 11400000, guid: 0b6dbc6592ce2d0488adb2f0a9f4a34d, type: 2}
  Haptic: {fileID: 11400000, guid: 0b6dbc6592ce2d0488adb2f0a9f4a34d, type: 2}
